1 10 20
100 200 125
201 210 89
900 1000 174
10 1 20
5 5 6
1 100 119
100 1000 179
100 100000 351
100000 999999 525
5000 50000 324
8743 293859 443
6666 99999 351
250 75000 340
403000 805000 509
3200 5030 238
56693 497574 449
34556 56674 340
876554 987654 507
346 964 179
500 250 144
123 456 144
546158 987453 525
84624 35416 351
6541 258 262
465 456 129
465 465 36
85562 245 351
5 258 128
9874 65 262
98 1 119
35548 546213 470
446186 834948 509
401285 524036 470
270883 989888 525
971707 497126 525
318753 546956 470
850387 90481 525
589447 415103 470
884014 271184 525
956944 992567 458
517904 551945 452
969585 780980 525
202298 912037 525
488420 296026 449
880599 763380 525
123815 462248 449
327356 954487 525
495872 74513 449
569284 241591 470
442632 517766 470
61012 78745 351
487703 865665 525
234603 899926 525
834384 687614 504
306936 140923 443
286360 215120 443
274975 752917 509
156375 391332 443
75972 728636 509
992682 415396 525
212145 925736 525
868695 359483 525
693051 352800 509
634 545377 470
441978 510209 444
563706 178758 470
505585 449492 444
89395 551124 470
125838 804414 509
717712 748578 424
536828 818594 509
554118 915948 525
400048 134314 443
262682 128511 443
327840 327808 260
895847 669755 525
342624 513916 470
633943 311562 509
472184 895654 525
296560 835897 509
583372 8749 470
900 9457 262
5004 8598 262
9460 381 262
6319 6681 244
3509 1597 217
3652 4882 238
3317 8142 262
3308 1151 217
2412 4930 238
4312 8019 262
74 8635 262
4082 2422 238
100 100 26
500 500 111
999999 999999 259
85258 85258 90
32165 32165 99
1 1 1
75 75 15
50050 50050 89
36 36 22
